RUN -> 1, BATCH_SIZE -> 64, LLM_MAX_TOKENS -> , INTRA_TC -> 1, N -> 10000000.
Load @run: 139224
Move @run: 1845161
Predict @run: 1433424987
Move Rev @run: 894863
┌─────────────────────┬──────────────────────┬─────────────────────┬───┬─────────────────┬─────────────────┬───────┐
│    sepal_length     │     sepal_width      │    petal_length     │ … │   versicolour   │    virginica    │  cls  │
│       double        │        double        │       double        │   │      float      │      float      │ float │
├─────────────────────┼──────────────────────┼─────────────────────┼───┼─────────────────┼─────────────────┼───────┤
│  0.6745011454696578 │   0.3284140531956675 │ 0.42173370769893376 │ … │  -8.1979326e+27 │  -3.7163454e+27 │   0.0 │
│   0.310997534138703 │  -0.5923730118389191 │ 0.13754657313091806 │ … │      -14.903022 │         95.7297 │   2.0 │
│ -0.5371775589668552 │    1.939791417006192 │ -1.3970639535363667 │ … │     -3641967.75 │      20034084.0 │   2.0 │
│  0.5533332750260058 │   0.7888075857129598 │  1.0469454037485681 │ … │      -12.983998 │        85.12161 │   2.0 │
│ -0.9006811702978099 │   0.5586108194543131 │  -1.169714245881954 │ … │            -nan │            -nan │   0.0 │
│ -0.9006811702978099 │   1.7095946507475455 │  -1.056039392054748 │ … │       -58.06105 │      -28.824923 │   0.0 │
│  0.5533332750260058 │  -1.7433568431321513 │  0.3648962807853308 │ … │        2.777524 │      -1.8223869 │   1.0 │
│   0.310997534138703 │  -0.5923730118389191 │  0.5354085615261401 │ … │      -18.637215 │       116.02801 │   2.0 │
│ -1.0218490407414607 │   0.7888075857129598 │ -1.2833890997091604 │ … │ -151890850000.0 │  -68857090000.0 │   0.0 │
│  -0.779513299854158 │   1.0190043519716065 │ -1.2833890997091604 │ … │       -58.18631 │      -28.880453 │   0.0 │
│   0.310997534138703 │  -0.1319794793216258 │  0.4785711346125367 │ … │        2.777524 │      -1.8223869 │   1.0 │
│   0.310997534138703 │  -0.1319794793216258 │  0.6490834153533465 │ … │       -58.52681 │      -29.032892 │   0.0 │
│  1.2803404976879142 │  0.09821728693702086 │  0.7627582691805523 │ … │        2.777524 │      -1.8223869 │   1.0 │
│  0.6745011454696578 │ -0.36217624558027245 │  0.3080588538717274 │ … │      -15.102481 │        96.74339 │   2.0 │
│  0.5533332750260058 │  -1.7433568431321513 │  0.3648962807853308 │ … │      -142.08464 │       -66.62052 │   0.0 │
│  0.6745011454696578 │   0.3284140531956675 │ 0.42173370769893376 │ … │       -9.318809 │        65.63851 │   2.0 │
│  0.5533332750260058 │  -0.5923730118389191 │  0.7627582691805523 │ … │  -1.4724828e+25 │   -6.565609e+24 │   0.0 │
│  0.6745011454696578 │  0.09821728693702086 │  0.9901079768349651 │ … │        -59.2625 │      -29.356012 │   0.0 │
│ -1.3853526520724144 │   0.3284140531956675 │ -1.3970639535363667 │ … │        2.777524 │      -1.8223869 │   1.0 │
│  0.5533332750260058 │  -1.7433568431321513 │  0.3648962807853308 │ … │       -58.66826 │      -29.093277 │   0.0 │
│           ·         │           ·          │           ·         │ · │            ·    │           ·     │    ·  │
│           ·         │           ·          │           ·         │ · │            ·    │           ·     │    ·  │
│           ·         │           ·          │           ·         │ · │            ·    │           ·     │    ·  │
│  0.5533332750260058 │ -0.36217624558027245 │  1.0469454037485681 │ … │        2.777524 │      -1.8223869 │   1.0 │
│  0.6745011454696578 │ -0.36217624558027245 │  0.3080588538717274 │ … │       -18.47554 │       115.10915 │   2.0 │
│  0.6745011454696578 │  -0.5923730118389191 │  1.0469454037485681 │ … │            -inf │            -inf │   0.0 │
│ -0.5371775589668552 │    1.939791417006192 │ -1.3970639535363667 │ … │        2.777524 │      -1.8223869 │   1.0 │
│ -0.9006811702978099 │   1.0190043519716065 │ -1.3402265266227635 │ … │  -4.8636642e+20 │  -2.1686444e+20 │   0.0 │
│ -0.4160096885232043 │    2.630381715782132 │ -1.3402265266227635 │ … │       -59.77001 │       -29.59029 │   0.0 │
│ 0.18982966369505214 │   -1.973553609390797 │  0.7059208422669494 │ … │   -8.494694e+34 │  -3.7910389e+34 │   0.0 │
│  0.7956690159133086 │  -0.1319794793216258 │  0.9901079768349651 │ … │      -59.949585 │      -29.660147 │   0.0 │
│ -0.9006811702978099 │   -1.282963310614858 │ -0.4308276960051133 │ … │   -8.494694e+34 │  -3.7910389e+34 │   0.0 │
│ -1.3853526520724144 │   0.3284140531956675 │ -1.2265516727955572 │ … │       -59.42107 │      -29.426174 │   0.0 │
│  1.2803404976879142 │  0.09821728693702086 │  0.6490834153533465 │ … │  -6.7489765e+30 │   3.7125384e+31 │   2.0 │
│  1.8861798499061706 │  -0.5923730118389191 │  1.3311325383165837 │ … │      -23.253212 │       140.47157 │   2.0 │
│  0.4321654045823549 │ -0.36217624558027245 │  0.3080588538717274 │ … │        2.777524 │      -1.8223869 │   1.0 │
│  1.1591726272442622 │  -0.1319794793216258 │  0.9901079768349651 │ … │      -58.037148 │      -28.833862 │   0.0 │
│ 0.18982966369505214 │   0.7888075857129598 │ 0.42173370769893376 │ … │  -3.4483533e+23 │  -1.5390614e+23 │   0.0 │
│ -0.9006811702978099 │   1.0190043519716065 │ -1.3402265266227635 │ … │       -51.65947 │       298.57114 │   2.0 │
│  -0.779513299854158 │   0.7888075857129598 │ -1.3402265266227635 │ … │ -553043560000.0 │ 3038373000000.0 │   2.0 │
│   0.310997534138703 │  -0.1319794793216258 │  0.6490834153533465 │ … │      -53.453827 │      -26.784616 │   0.0 │
│   2.492019202124427 │   1.7095946507475455 │  1.5016448190573937 │ … │        2.777524 │      -1.8223869 │   1.0 │
│  0.5533332750260058 │  -0.5923730118389191 │  0.7627582691805523 │ … │      -22.615429 │       137.18945 │   2.0 │
├─────────────────────┴──────────────────────┴─────────────────────┴───┴─────────────────┴─────────────────┴───────┤
│ 10000000 rows (40 shown)                                                                     9 columns (6 shown) │
└──────────────────────────────────────────────────────────────────────────────────────────────────────────────────┘
RUN -> 1, BATCH_SIZE -> 64, LLM_MAX_TOKENS -> , INTRA_TC -> 2, N -> 10000000.
Load @run: 133847
Move @run: 1930004
Predict @run: 844708913
Move Rev @run: 923716
┌─────────────────────┬──────────────────────┬─────────────────────┬───┬─────────────────┬─────────────────┬───────┐
│    sepal_length     │     sepal_width      │    petal_length     │ … │   versicolour   │    virginica    │  cls  │
│       double        │        double        │       double        │   │      float      │      float      │ float │
├─────────────────────┼──────────────────────┼─────────────────────┼───┼─────────────────┼─────────────────┼───────┤
│  0.6745011454696578 │   0.3284140531956675 │ 0.42173370769893376 │ … │  -8.1979326e+27 │  -3.7163454e+27 │   0.0 │
│   0.310997534138703 │  -0.5923730118389191 │ 0.13754657313091806 │ … │      -14.903022 │         95.7297 │   2.0 │
│ -0.5371775589668552 │    1.939791417006192 │ -1.3970639535363667 │ … │     -3641967.75 │      20034084.0 │   2.0 │
│  0.5533332750260058 │   0.7888075857129598 │  1.0469454037485681 │ … │      -12.983998 │        85.12161 │   2.0 │
│ -0.9006811702978099 │   0.5586108194543131 │  -1.169714245881954 │ … │            -nan │            -nan │   0.0 │
│ -0.9006811702978099 │   1.7095946507475455 │  -1.056039392054748 │ … │       -58.06105 │      -28.824923 │   0.0 │
│  0.5533332750260058 │  -1.7433568431321513 │  0.3648962807853308 │ … │        2.777524 │      -1.8223869 │   1.0 │
│   0.310997534138703 │  -0.5923730118389191 │  0.5354085615261401 │ … │      -18.637215 │       116.02801 │   2.0 │
│ -1.0218490407414607 │   0.7888075857129598 │ -1.2833890997091604 │ … │ -151890850000.0 │  -68857090000.0 │   0.0 │
│  -0.779513299854158 │   1.0190043519716065 │ -1.2833890997091604 │ … │       -58.18631 │      -28.880453 │   0.0 │
│   0.310997534138703 │  -0.1319794793216258 │  0.4785711346125367 │ … │        2.777524 │      -1.8223869 │   1.0 │
│   0.310997534138703 │  -0.1319794793216258 │  0.6490834153533465 │ … │       -58.52681 │      -29.032892 │   0.0 │
│  1.2803404976879142 │  0.09821728693702086 │  0.7627582691805523 │ … │        2.777524 │      -1.8223869 │   1.0 │
│  0.6745011454696578 │ -0.36217624558027245 │  0.3080588538717274 │ … │      -15.102481 │        96.74339 │   2.0 │
│  0.5533332750260058 │  -1.7433568431321513 │  0.3648962807853308 │ … │      -142.08464 │       -66.62052 │   0.0 │
│  0.6745011454696578 │   0.3284140531956675 │ 0.42173370769893376 │ … │       -9.318809 │        65.63851 │   2.0 │
│  0.5533332750260058 │  -0.5923730118389191 │  0.7627582691805523 │ … │  -1.4724828e+25 │   -6.565609e+24 │   0.0 │
│  0.6745011454696578 │  0.09821728693702086 │  0.9901079768349651 │ … │        -59.2625 │      -29.356012 │   0.0 │
│ -1.3853526520724144 │   0.3284140531956675 │ -1.3970639535363667 │ … │        2.777524 │      -1.8223869 │   1.0 │
│  0.5533332750260058 │  -1.7433568431321513 │  0.3648962807853308 │ … │       -58.66826 │      -29.093277 │   0.0 │
│           ·         │           ·          │           ·         │ · │            ·    │           ·     │    ·  │
│           ·         │           ·          │           ·         │ · │            ·    │           ·     │    ·  │
│           ·         │           ·          │           ·         │ · │            ·    │           ·     │    ·  │
│  0.5533332750260058 │ -0.36217624558027245 │  1.0469454037485681 │ … │        2.777524 │      -1.8223869 │   1.0 │
│  0.6745011454696578 │ -0.36217624558027245 │  0.3080588538717274 │ … │       -18.47554 │       115.10915 │   2.0 │
│  0.6745011454696578 │  -0.5923730118389191 │  1.0469454037485681 │ … │            -inf │            -inf │   0.0 │
│ -0.5371775589668552 │    1.939791417006192 │ -1.3970639535363667 │ … │        2.777524 │      -1.8223869 │   1.0 │
│ -0.9006811702978099 │   1.0190043519716065 │ -1.3402265266227635 │ … │  -4.8636642e+20 │  -2.1686444e+20 │   0.0 │
│ -0.4160096885232043 │    2.630381715782132 │ -1.3402265266227635 │ … │       -59.77001 │       -29.59029 │   0.0 │
│ 0.18982966369505214 │   -1.973553609390797 │  0.7059208422669494 │ … │   -8.494694e+34 │  -3.7910389e+34 │   0.0 │
│  0.7956690159133086 │  -0.1319794793216258 │  0.9901079768349651 │ … │      -59.949585 │      -29.660147 │   0.0 │
│ -0.9006811702978099 │   -1.282963310614858 │ -0.4308276960051133 │ … │   -8.494694e+34 │  -3.7910389e+34 │   0.0 │
│ -1.3853526520724144 │   0.3284140531956675 │ -1.2265516727955572 │ … │       -59.42107 │      -29.426174 │   0.0 │
│  1.2803404976879142 │  0.09821728693702086 │  0.6490834153533465 │ … │  -6.7489765e+30 │   3.7125384e+31 │   2.0 │
│  1.8861798499061706 │  -0.5923730118389191 │  1.3311325383165837 │ … │      -23.253212 │       140.47157 │   2.0 │
│  0.4321654045823549 │ -0.36217624558027245 │  0.3080588538717274 │ … │        2.777524 │      -1.8223869 │   1.0 │
│  1.1591726272442622 │  -0.1319794793216258 │  0.9901079768349651 │ … │      -58.037148 │      -28.833862 │   0.0 │
│ 0.18982966369505214 │   0.7888075857129598 │ 0.42173370769893376 │ … │  -3.4483533e+23 │  -1.5390614e+23 │   0.0 │
│ -0.9006811702978099 │   1.0190043519716065 │ -1.3402265266227635 │ … │       -51.65947 │       298.57114 │   2.0 │
│  -0.779513299854158 │   0.7888075857129598 │ -1.3402265266227635 │ … │ -553043560000.0 │ 3038373000000.0 │   2.0 │
│   0.310997534138703 │  -0.1319794793216258 │  0.6490834153533465 │ … │      -53.453827 │      -26.784616 │   0.0 │
│   2.492019202124427 │   1.7095946507475455 │  1.5016448190573937 │ … │        2.777524 │      -1.8223869 │   1.0 │
│  0.5533332750260058 │  -0.5923730118389191 │  0.7627582691805523 │ … │      -22.615429 │       137.18945 │   2.0 │
├─────────────────────┴──────────────────────┴─────────────────────┴───┴─────────────────┴─────────────────┴───────┤
│ 10000000 rows (40 shown)                                                                     9 columns (6 shown) │
└──────────────────────────────────────────────────────────────────────────────────────────────────────────────────┘
RUN -> 1, BATCH_SIZE -> 64, LLM_MAX_TOKENS -> , INTRA_TC -> 4, N -> 10000000.
Load @run: 131594
Move @run: 1768930
Predict @run: 489233399
Move Rev @run: 832975
┌─────────────────────┬──────────────────────┬─────────────────────┬───┬─────────────────┬─────────────────┬───────┐
│    sepal_length     │     sepal_width      │    petal_length     │ … │   versicolour   │    virginica    │  cls  │
│       double        │        double        │       double        │   │      float      │      float      │ float │
├─────────────────────┼──────────────────────┼─────────────────────┼───┼─────────────────┼─────────────────┼───────┤
│  0.6745011454696578 │   0.3284140531956675 │ 0.42173370769893376 │ … │  -8.1979326e+27 │  -3.7163454e+27 │   0.0 │
│   0.310997534138703 │  -0.5923730118389191 │ 0.13754657313091806 │ … │      -14.903022 │         95.7297 │   2.0 │
│ -0.5371775589668552 │    1.939791417006192 │ -1.3970639535363667 │ … │     -3641967.75 │      20034084.0 │   2.0 │
│  0.5533332750260058 │   0.7888075857129598 │  1.0469454037485681 │ … │      -12.983998 │        85.12161 │   2.0 │
│ -0.9006811702978099 │   0.5586108194543131 │  -1.169714245881954 │ … │            -nan │            -nan │   0.0 │
│ -0.9006811702978099 │   1.7095946507475455 │  -1.056039392054748 │ … │       -58.06105 │      -28.824923 │   0.0 │
│  0.5533332750260058 │  -1.7433568431321513 │  0.3648962807853308 │ … │        2.777524 │      -1.8223869 │   1.0 │
│   0.310997534138703 │  -0.5923730118389191 │  0.5354085615261401 │ … │      -18.637215 │       116.02801 │   2.0 │
│ -1.0218490407414607 │   0.7888075857129598 │ -1.2833890997091604 │ … │ -151890850000.0 │  -68857090000.0 │   0.0 │
│  -0.779513299854158 │   1.0190043519716065 │ -1.2833890997091604 │ … │       -58.18631 │      -28.880453 │   0.0 │
│   0.310997534138703 │  -0.1319794793216258 │  0.4785711346125367 │ … │        2.777524 │      -1.8223869 │   1.0 │
│   0.310997534138703 │  -0.1319794793216258 │  0.6490834153533465 │ … │       -58.52681 │      -29.032892 │   0.0 │
│  1.2803404976879142 │  0.09821728693702086 │  0.7627582691805523 │ … │        2.777524 │      -1.8223869 │   1.0 │
│  0.6745011454696578 │ -0.36217624558027245 │  0.3080588538717274 │ … │      -15.102481 │        96.74339 │   2.0 │
│  0.5533332750260058 │  -1.7433568431321513 │  0.3648962807853308 │ … │      -142.08464 │       -66.62052 │   0.0 │
│  0.6745011454696578 │   0.3284140531956675 │ 0.42173370769893376 │ … │       -9.318809 │        65.63851 │   2.0 │
│  0.5533332750260058 │  -0.5923730118389191 │  0.7627582691805523 │ … │  -1.4724828e+25 │   -6.565609e+24 │   0.0 │
│  0.6745011454696578 │  0.09821728693702086 │  0.9901079768349651 │ … │        -59.2625 │      -29.356012 │   0.0 │
│ -1.3853526520724144 │   0.3284140531956675 │ -1.3970639535363667 │ … │        2.777524 │      -1.8223869 │   1.0 │
│  0.5533332750260058 │  -1.7433568431321513 │  0.3648962807853308 │ … │       -58.66826 │      -29.093277 │   0.0 │
│           ·         │           ·          │           ·         │ · │            ·    │           ·     │    ·  │
│           ·         │           ·          │           ·         │ · │            ·    │           ·     │    ·  │
│           ·         │           ·          │           ·         │ · │            ·    │           ·     │    ·  │
│  0.5533332750260058 │ -0.36217624558027245 │  1.0469454037485681 │ … │        2.777524 │      -1.8223869 │   1.0 │
│  0.6745011454696578 │ -0.36217624558027245 │  0.3080588538717274 │ … │       -18.47554 │       115.10915 │   2.0 │
│  0.6745011454696578 │  -0.5923730118389191 │  1.0469454037485681 │ … │            -inf │            -inf │   0.0 │
│ -0.5371775589668552 │    1.939791417006192 │ -1.3970639535363667 │ … │        2.777524 │      -1.8223869 │   1.0 │
│ -0.9006811702978099 │   1.0190043519716065 │ -1.3402265266227635 │ … │  -4.8636642e+20 │  -2.1686444e+20 │   0.0 │
│ -0.4160096885232043 │    2.630381715782132 │ -1.3402265266227635 │ … │       -59.77001 │       -29.59029 │   0.0 │
│ 0.18982966369505214 │   -1.973553609390797 │  0.7059208422669494 │ … │   -8.494694e+34 │  -3.7910389e+34 │   0.0 │
│  0.7956690159133086 │  -0.1319794793216258 │  0.9901079768349651 │ … │      -59.949585 │      -29.660147 │   0.0 │
│ -0.9006811702978099 │   -1.282963310614858 │ -0.4308276960051133 │ … │   -8.494694e+34 │  -3.7910389e+34 │   0.0 │
│ -1.3853526520724144 │   0.3284140531956675 │ -1.2265516727955572 │ … │       -59.42107 │      -29.426174 │   0.0 │
│  1.2803404976879142 │  0.09821728693702086 │  0.6490834153533465 │ … │  -6.7489765e+30 │   3.7125384e+31 │   2.0 │
│  1.8861798499061706 │  -0.5923730118389191 │  1.3311325383165837 │ … │      -23.253212 │       140.47157 │   2.0 │
│  0.4321654045823549 │ -0.36217624558027245 │  0.3080588538717274 │ … │        2.777524 │      -1.8223869 │   1.0 │
│  1.1591726272442622 │  -0.1319794793216258 │  0.9901079768349651 │ … │      -58.037148 │      -28.833862 │   0.0 │
│ 0.18982966369505214 │   0.7888075857129598 │ 0.42173370769893376 │ … │  -3.4483533e+23 │  -1.5390614e+23 │   0.0 │
│ -0.9006811702978099 │   1.0190043519716065 │ -1.3402265266227635 │ … │       -51.65947 │       298.57114 │   2.0 │
│  -0.779513299854158 │   0.7888075857129598 │ -1.3402265266227635 │ … │ -553043560000.0 │ 3038373000000.0 │   2.0 │
│   0.310997534138703 │  -0.1319794793216258 │  0.6490834153533465 │ … │      -53.453827 │      -26.784616 │   0.0 │
│   2.492019202124427 │   1.7095946507475455 │  1.5016448190573937 │ … │        2.777524 │      -1.8223869 │   1.0 │
│  0.5533332750260058 │  -0.5923730118389191 │  0.7627582691805523 │ … │      -22.615429 │       137.18945 │   2.0 │
├─────────────────────┴──────────────────────┴─────────────────────┴───┴─────────────────┴─────────────────┴───────┤
│ 10000000 rows (40 shown)                                                                     9 columns (6 shown) │
└──────────────────────────────────────────────────────────────────────────────────────────────────────────────────┘
…
